module github.com/drgrib/alfred-bear

go 1.13

require (
	github.com/atotto/clipboard v0.1.2
	github.com/drgrib/alfred v0.0.0-20180713231015-cbcb1a4b1a30
	github.com/drgrib/mac v0.0.0-20200321221020-4f366006daac
	github.com/mattn/go-sqlite3 v2.0.3+incompatible
	github.com/pkg/errors v0.9.1
	golang.org/x/text v0.3.2
)
